# Blender v2.72 (sub 0) OBJ File: ''
o Cube
v 1.000000 1.000000 -1.000000
v 1.000000 -1.000000 -1.000000
v -1.000000 -1.000000 -1.000000
v -1.000000 1.000000 -1.000000
v 1.000000 0.999999 1.000000
v 0.999999 -1.000001 1.000000
v -1.000000 -1.000000 1.000000
v -1.000000 1.000000 1.000000
vt 0.500000 0.500000
vt 1.000000 0.500000
vt 1.000000 1.000000
vt 0.500000 0.000000
vt 1.000000 0.000000
vt 0.000615 0.500000
vt 0.500615 0.500000
vt 0.500615 1.000000
vt 0.000000 0.000000
vt 0.500000 1.000000
vt 0.000615 1.000000
vt 0.000000 0.500000
vn -1.000000 0.000000 -0.000000
vn 0.000000 1.000000 0.000000
vn 1.000000 -0.000000 0.000000
vn -0.000000 -1.000000 -0.000000
s off
f 1/1/1 2/2/1 6/3/1
f 2/4/2 3/5/2 7/2/2
f 4/6/3 8/7/3 7/8/3
f 8/9/4 4/4/4 1/1/4
f 5/10/1 1/1/1 6/3/1
f 6/1/2 2/4/2 7/2/2
f 3/11/3 4/6/3 7/8/3
f 5/12/4 8/9/4 1/1/4
